…
``` r
##
baseURL <- "https://www.doh.gov.ph"

##
prURL <- get_pr_url(pages = 1)

##
get_press_release(url = paste(baseURL, prURL$url[1], sep = ""), 
                  date = prURL$date[1])
#> # A tibble: 57 x 5
#>    linenumber text                                     type     id    date      
#>         <int> <chr>                                    <chr>    <lgl> <date>    
#>  1          1 ECQ Buys PH Time; Continued Practice of… press r… NA    2020-05-09
#>  2          2 Press Release/07 May 2020 The Philippin… press r… NA    2020-05-09
#>  3          3 how many people test positive for COVID… press r… NA    2020-05-09
#>  4          4 which meets the benchmark set by the Wo… press r… NA    2020-05-09
#>  5          5 media forum, Health Undersecretary Dr. … press r… NA    2020-05-09
#>  6          6 the welcome news with Dr. Edsel Salvana… press r… NA    2020-05-09
#>  7          7 the Technical Advisory Group that advis… press r… NA    2020-05-09
#>  8          8 Inter-Agency Task Force (IATF). Conside… press r… NA    2020-05-09
#>  9          9 up its testing capacity, and that the s… press r… NA    2020-05-09
#> 10         10 individuals, the low positivity rate ha… press r… NA    2020-05-09
#> # … with 47 more rows
```
…
#### Concatenating datasets based on a specific search term

The `combine_docs` function allows the user to specify search terms to
use in identifying datasets provided by the `comotext` package. The
`docs` argument allows the specification of a vector of search terms to
use to identify the names of datasets to concatenate. If the name/s of
the datasets contain these search terms, the datasets with these name/s
will be returned.

``` r
combine_docs(docs = "resolution")
#> # A tibble: 1,727 x 5
#>    linenumber text                                      type       id date      
#>         <int> <chr>                                     <chr>   <dbl> <date>    
#>  1          1 "                                    ​RE…  resolu…    19 2020-04-03
#>  2          2 "                                ​INTER-…  resolu…    19 2020-04-03
#>  3          3 "                      FOR THE MANAGEMEN… resolu…    19 2020-04-03
#>  4          4 "                                       … resolu…    19 2020-04-03
#>  5          5 "                                       … resolu…    19 2020-04-03
#>  6          6 "                                       … resolu…    19 2020-04-03
#>  7          7 "        RECOMMENDATIONS RELATIVE TO THE… resolu…    19 2020-04-03
#>  8          8 "     OF THE CORONAVIRUS DISEASE 2019 (C… resolu…    19 2020-04-03
#>  9          9 "        WHEREAS, ​on March 8, 2020, rec…  resolu…    19 2020-04-03
#> 10         10 "mobilization of a whole-of-government r… resolu…    19 2020-04-03
#> # … with 1,717 more rows
```

The `combine_iatf` function is a specialised wrapper of the
`combine_docs` function that specifically returns datasets containing
IATF resolutions. An additional argument `res` allows users to specify
which IATF resolutions to return. To get IATF resolution 10, 11, and 12,
the following call to `combine_iatf` is made as follows:

``` r
combine_iatf(docs = "resolution", res = 10:12)
#> # A tibble: 408 x 5
#>    linenumber text                                      type       id date      
#>         <int> <chr>                                     <chr>   <dbl> <date>    
#>  1          1 REPUBLIC OF THE PHILIPPINES               resolu…    12 2020-03-13
#>  2          2 DOH - DFA - DILG - DOJ - DOLE - DOT - DO… resolu…    12 2020-03-13
#>  3          3 INTER-AGENCY TASK FORCE FOR THE MANAGEME… resolu…    12 2020-03-13
#>  4          4 EMERGING INFECTIOUS DISEASE               resolu…    12 2020-03-13
#>  5          5 RESOLUTION NO. 12                         resolu…    12 2020-03-13
#>  6          6 Series of 2020                            resolu…    12 2020-03-13
#>  7          7 March 13, 2020                            resolu…    12 2020-03-13
#>  8          8 RECOMMENDATIONS FOR THE MANAGEMENT        resolu…    12 2020-03-13
#>  9          9 OF THE CORONAVIRUS DISEASE 2019 (COVID-1… resolu…    12 2020-03-13
#> 10         10 WHEREAS, on March 12, 2020, the IATF wit… resolu…    12 2020-03-13
#> # … with 398 more rows
```

To check if only resolutions 10 to 12 have been returned:

``` r
combine_iatf(docs = "resolution", res = 10:12)[ , c("type", "id")]
#> # A tibble: 408 x 2
#>    type          id
#>    <chr>      <dbl>
#>  1 resolution    12
#>  2 resolution    12
#>  3 resolution    12
#>  4 resolution    12
#>  5 resolution    12
#>  6 resolution    12
#>  7 resolution    12
#>  8 resolution    12
#>  9 resolution    12
#> 10 resolution    12
#> # … with 398 more rows
```
