R Tools to Extract COVID-19-Related Resolutions and Policies in the Philippines • comotext
…
The function get_press_releases creates a dataset of text of press releases given a URL of a specific press release text and the date of release. This information is provided for by get_pr_url. If we want to get the text data of the press releases from page 1 of the press release panel, we use:

## Extract URLs from DoH press releases page 1
prURL <- get_pr_url(pages = 1)

## Extract text from first press release
get_press_release(url = prURL$url[1],
                  date = prURL$date[1])
#> # A tibble: 44 x 5
#>    linenumber text                                     type     id    date      
#>         <int> <chr>                                    <chr>    <lgl> <date>    
#>  1          1 ADB-Sponsored COVID-19 Lab in Pampanga … press r… NA    2020-05-10
#>  2          2 Press Release/10 May 2020Health Secreta… press r… NA    2020-05-10
#>  3          3 with Cabinet Secretary Karlo Nograles a… press r… NA    2020-05-10
#>  4          4 Health (DOH), inaugurated the state-of-… press r… NA    2020-05-10
#>  5          5 funded Molecular and Diagnostic Patholo… press r… NA    2020-05-10
#>  6          6 Memorial General Hospital (JBLMGH) in S… press r… NA    2020-05-10
#>  7          7 2020. JBLMGH was the recipient of the U… press r… NA    2020-05-10
#>  8          8 to set up a Pandemic Sub national Refer… press r… NA    2020-05-10
#>  9          9 country’s testing capacity by an additi… press r… NA    2020-05-10
#> 10         10 Ahmed M. Saeed, Vice President for East… press r… NA    2020-05-10
#> # … with 34 more rows

Concatenating text datasets

The datasets described above can be processed and analysed on their own or as a combined corpus of text data. comotext provides convenience functions that concatenates all or specific text datasets available from the comotext package.

Concatenating datasets based on a specific search term

The combine_docs function allows the user to specify search terms to use in identifying datasets provided by the comotext package. The docs argument allows the specification of a vector of search terms to use to identify the names of datasets to concatenate. If the name/s of the datasets contain these search terms, the datasets with these name/s will be returned.

combine_docs(docs = "resolution")
#> # A tibble: 1,727 x 5
#>    linenumber text                                      type       id date      
#>         <int> <chr>                                     <chr>   <dbl> <date>    
#>  1          1 "                                    ​RE…  resolu…    19 2020-04-03
#>  2          2 "                                ​INTER-…  resolu…    19 2020-04-03
#>  3          3 "                      FOR THE MANAGEMEN… resolu…    19 2020-04-03
#>  4          4 "                                       … resolu…    19 2020-04-03
#>  5          5 "                                       … resolu…    19 2020-04-03
#>  6          6 "                                       … resolu…    19 2020-04-03
#>  7          7 "        RECOMMENDATIONS RELATIVE TO THE… resolu…    19 2020-04-03
#>  8          8 "     OF THE CORONAVIRUS DISEASE 2019 (C… resolu…    19 2020-04-03
#>  9          9 "        WHEREAS, ​on March 8, 2020, rec…  resolu…    19 2020-04-03
#> 10         10 "mobilization of a whole-of-government r… resolu…    19 2020-04-03
#> # … with 1,717 more rows

The combine_iatf function is a specialised wrapper of the combine_docs function that specifically returns datasets containing IATF resolutions. An additional argument res allows users to specify which IATF resolutions to return. To get IATF resolution 10, 11, and 12, the following call to combine_iatf is made as follows:

combine_iatf(docs = "resolution", res = 10:12)
#> # A tibble: 408 x 5
#>    linenumber text                                      type       id date      
#>         <int> <chr>                                     <chr>   <dbl> <date>    
#>  1          1 REPUBLIC OF THE PHILIPPINES               resolu…    12 2020-03-13
#>  2          2 DOH - DFA - DILG - DOJ - DOLE - DOT - DO… resolu…    12 2020-03-13
#>  3          3 INTER-AGENCY TASK FORCE FOR THE MANAGEME… resolu…    12 2020-03-13
#>  4          4 EMERGING INFECTIOUS DISEASE               resolu…    12 2020-03-13
#>  5          5 RESOLUTION NO. 12                         resolu…    12 2020-03-13
#>  6          6 Series of 2020                            resolu…    12 2020-03-13
#>  7          7 March 13, 2020                            resolu…    12 2020-03-13
#>  8          8 RECOMMENDATIONS FOR THE MANAGEMENT        resolu…    12 2020-03-13
#>  9          9 OF THE CORONAVIRUS DISEASE 2019 (COVID-1… resolu…    12 2020-03-13
#> 10         10 WHEREAS, on March 12, 2020, the IATF wit… resolu…    12 2020-03-13
#> # … with 398 more rows

To check if only resolutions 10 to 12 have been returned:

combine_iatf(docs = "resolution", res = 10:12)[ , c("type", "id")]
#> # A tibble: 408 x 2
#>    type          id
#>    <chr>      <dbl>
#>  1 resolution    12
#>  2 resolution    12
#>  3 resolution    12
#>  4 resolution    12
#>  5 resolution    12
#>  6 resolution    12
#>  7 resolution    12
#>  8 resolution    12
#>  9 resolution    12
#> 10 resolution    12
#> # … with 398 more rows
…
