Department of Health press releases URLs from 2017 to May 2020 — dohLinks • comotext
…
  urlRelative URL of press releases

  idUnique identifier of press release

  dateDate of issue of press release

    Source

    Produced by get_pr_url(pages = 1:25). Updated as of
  19 May 2020.

    Examples

dohLinks
#> # A tibble: 362 x 6
#>       id title                   date       source type   url                   
#>    <dbl> <chr>                   <date>     <chr>  <chr>  <chr>                 
#>  1  4158 DOH TO DEPUTIZE MED GR… 2020-05-19 DOH    press… https://www.doh.gov.p…
#>  2  4158 DOH ENCOURAGES VIRTUAL… 2020-05-18 DOH    press… https://www.doh.gov.p…
#>  3  1311 Malasakit: panlaban na… 2020-05-16 DOH    press… https://www.doh.gov.p…
#>  4  5241 EXPERTS RALLY BEHIND D… 2020-05-14 DOH    press… https://www.doh.gov.p…
#>  5  5241 GOVERNMENT OFFERS FULL… 2020-05-14 DOH    press… https://www.doh.gov.p…
#>  6  1452 NEW QUARANTINE SITE IN… 2020-05-13 DOH    press… https://www.doh.gov.p…
#>  7  1920 STATEMENT ON DATA INTE… 2020-05-13 DOH    press… https://www.doh.gov.p…
#>  8  8151 HONORING NURSE’S DAY: … 2020-05-13 DOH    press… https://www.doh.gov.p…
#>  9  1911 SAN JUAN CITY THANKS D… 2020-05-13 DOH    press… https://www.doh.gov.p…
#> 10  1421 ADB-Sponsored COVID-19… 2020-05-10 DOH    press… https://www.doh.gov.p…
#> # … with 352 more rows
…
